83190817/p3/simulation/qsim/lab4_p3.msim.vcd
$comment
	File created using the following command:
		vcd file lab4_p3.msim.vcd -direction
$end
$date
	Mon Oct 09 11:09:09 2023
$end
$version
	ModelSim Version 2020.1
$end
$timescale
	1ps
$end

$scope module clk_div_vhd_vec_tst $end
$var wire 1 ! clk_in $end
$var wire 1 " clk_out $end
$var wire 1 # rst $end

$scope module i1 $end
$var wire 1 $ gnd $end
$var wire 1 % vcc $end
$var wire 1 & unknown $end
$var wire 1 ' devoe $end
$var wire 1 ( devclrn $end
$var wire 1 ) devpor $end
$var wire 1 * ww_devoe $end
$var wire 1 + ww_devclrn $end
$var wire 1 , ww_devpor $end
$var wire 1 - ww_clk_in $end
$var wire 1 . ww_clk_out $end
$var wire 1 / ww_rst $end
$var wire 1 0 \~QUARTUS_CREATED_ADC1~_CHSEL_bus\ [4] $end
$var wire 1 1 \~QUARTUS_CREATED_ADC1~_CHSEL_bus\ [3] $end
$var wire 1 2 \~QUARTUS_CREATED_ADC1~_CHSEL_bus\ [2] $end
$var wire 1 3 \~QUARTUS_CREATED_ADC1~_CHSEL_bus\ [1] $end
$var wire 1 4 \~QUARTUS_CREATED_ADC1~_CHSEL_bus\ [0] $end
$var wire 1 5 \~QUARTUS_CREATED_ADC2~_CHSEL_bus\ [4] $end
$var wire 1 6 \~QUARTUS_CREATED_ADC2~_CHSEL_bus\ [3] $end
$var wire 1 7 \~QUARTUS_CREATED_ADC2~_CHSEL_bus\ [2] $end
$var wire 1 8 \~QUARTUS_CREATED_ADC2~_CHSEL_bus\ [1] $end
$var wire 1 9 \~QUARTUS_CREATED_ADC2~_CHSEL_bus\ [0] $end
$var wire 1 : \rst~inputclkctrl_INCLK_bus\ [3] $end
$var wire 1 ; \rst~inputclkctrl_INCLK_bus\ [2] $end
$var wire 1 < \rst~inputclkctrl_INCLK_bus\ [1] $end
$var wire 1 = \rst~inputclkctrl_INCLK_bus\ [0] $end
$var wire 1 > \clk_in~inputclkctrl_INCLK_bus\ [3] $end
$var wire 1 ? \clk_in~inputclkctrl_INCLK_bus\ [2] $end
$var wire 1 @ \clk_in~inputclkctrl_INCLK_bus\ [1] $end
$var wire 1 A \clk_in~inputclkctrl_INCLK_bus\ [0] $end
$var wire 1 B \~QUARTUS_CREATED_GND~I_combout\ $end
$var wire 1 C \~QUARTUS_CREATED_UNVM~~busy\ $end
$var wire 1 D \~QUARTUS_CREATED_ADC1~~eoc\ $end
$var wire 1 E \~QUARTUS_CREATED_ADC2~~eoc\ $end
$var wire 1 F \clk_out~output_o\ $end
$var wire 1 G \clk_in~input_o\ $end
$var wire 1 H \clk_in~inputclkctrl_outclk\ $end
$var wire 1 I \Add0~0_combout\ $end
$var wire 1 J \count~6_combout\ $end
$var wire 1 K \rst~input_o\ $end
$var wire 1 L \rst~inputclkctrl_outclk\ $end
$var wire 1 M \Add0~1\ $end
$var wire 1 N \Add0~2_combout\ $end
$var wire 1 O \Add0~3\ $end
$var wire 1 P \Add0~4_combout\ $end
$var wire 1 Q \Add0~5\ $end
$var wire 1 R \Add0~6_combout\ $end
$var wire 1 S \Add0~7\ $end
$var wire 1 T \Add0~8_combout\ $end
$var wire 1 U \count~5_combout\ $end
$var wire 1 V \Add0~9\ $end
$var wire 1 W \Add0~10_combout\ $end
$var wire 1 X \Add0~11\ $end
$var wire 1 Y \Add0~12_combout\ $end
$var wire 1 Z \count~4_combout\ $end
$var wire 1 [ \Add0~13\ $end
$var wire 1 \ \Add0~14_combout\ $end
$var wire 1 ] \Add0~15\ $end
$var wire 1 ^ \Add0~16_combout\ $end
$var wire 1 _ \count~3_combout\ $end
$var wire 1 ` \Add0~17\ $end
$var wire 1 a \Add0~18_combout\ $end
$var wire 1 b \count~2_combout\ $end
$var wire 1 c \Add0~19\ $end
$var wire 1 d \Add0~20_combout\ $end
$var wire 1 e \Add0~21\ $end
$var wire 1 f \Add0~22_combout\ $end
$var wire 1 g \Add0~23\ $end
$var wire 1 h \Add0~24_combout\ $end
$var wire 1 i \Add0~25\ $end
$var wire 1 j \Add0~26_combout\ $end
$var wire 1 k \Add0~27\ $end
$var wire 1 l \Add0~28_combout\ $end
$var wire 1 m \count~1_combout\ $end
$var wire 1 n \Add0~29\ $end
$var wire 1 o \Add0~30_combout\ $end
$var wire 1 p \count~0_combout\ $end
$var wire 1 q \Equal0~5_combout\ $end
$var wire 1 r \Equal0~6_combout\ $end
$var wire 1 s \Equal0~7_combout\ $end
$var wire 1 t \Equal0~8_combout\ $end
$var wire 1 u \Equal0~9_combout\ $end
$var wire 1 v \Add0~31\ $end
$var wire 1 w \Add0~32_combout\ $end
$var wire 1 x \Add0~33\ $end
$var wire 1 y \Add0~34_combout\ $end
$var wire 1 z \Add0~35\ $end
$var wire 1 { \Add0~36_combout\ $end
$var wire 1 | \Add0~37\ $end
$var wire 1 } \Add0~38_combout\ $end
$var wire 1 ~ \Add0~39\ $end
$var wire 1 !! \Add0~40_combout\ $end
$var wire 1 "! \Add0~41\ $end
$var wire 1 #! \Add0~42_combout\ $end
$var wire 1 $! \Add0~43\ $end
$var wire 1 %! \Add0~44_combout\ $end
$var wire 1 &! \Add0~45\ $end
$var wire 1 '! \Add0~46_combout\ $end
$var wire 1 (! \Add0~47\ $end
$var wire 1 )! \Add0~48_combout\ $end
$var wire 1 *! \Add0~49\ $end
$var wire 1 +! \Add0~50_combout\ $end
$var wire 1 ,! \Add0~51\ $end
$var wire 1 -! \Add0~52_combout\ $end
$var wire 1 .! \Add0~53\ $end
$var wire 1 /! \Add0~54_combout\ $end
$var wire 1 0! \Add0~55\ $end
$var wire 1 1! \Add0~56_combout\ $end
$var wire 1 2! \Add0~57\ $end
$var wire 1 3! \Add0~58_combout\ $end
$var wire 1 4! \Add0~59\ $end
$var wire 1 5! \Add0~60_combout\ $end
$var wire 1 6! \Add0~61\ $end
$var wire 1 7! \Add0~62_combout\ $end
$var wire 1 8! \Equal0~0_combout\ $end
$var wire 1 9! \Equal0~2_combout\ $end
$var wire 1 :! \Equal0~3_combout\ $end
$var wire 1 ;! \Equal0~1_combout\ $end
$var wire 1 <! \Equal0~4_combout\ $end
$var wire 1 =! \Equal0~10_combout\ $end
$var wire 1 >! \clockout~0_combout\ $end
$var wire 1 ?! \clockout~q\ $end
$var wire 1 @! count [31] $end
$var wire 1 A! count [30] $end
$var wire 1 B! count [29] $end
$var wire 1 C! count [28] $end
$var wire 1 D! count [27] $end
$var wire 1 E! count [26] $end
$var wire 1 F! count [25] $end
$var wire 1 G! count [24] $end
$var wire 1 H! count [23] $end
$var wire 1 I! count [22] $end
$var wire 1 J! count [21] $end
$var wire 1 K! count [20] $end
$var wire 1 L! count [19] $end
$var wire 1 M! count [18] $end
$var wire 1 N! count [17] $end
$var wire 1 O! count [16] $end
$var wire 1 P! count [15] $end
$var wire 1 Q! count [14] $end
$var wire 1 R! count [13] $end
$var wire 1 S! count [12] $end
$var wire 1 T! count [11] $end
$var wire 1 U! count [10] $end
$var wire 1 V! count [9] $end
$var wire 1 W! count [8] $end
$var wire 1 X! count [7] $end
$var wire 1 Y! count [6] $end
$var wire 1 Z! count [5] $end
$var wire 1 [! count [4] $end
$var wire 1 \! count [3] $end
$var wire 1 ]! count [2] $end
$var wire 1 ^! count [1] $end
$var wire 1 _! count [0] $end
$var wire 1 `! \ALT_INV_rst~inputclkctrl_outclk\ $end
$upscope $end
$upscope $end
$enddefinitions $end
#0
$dumpvars
0!
0"
0#
0$
1%
x&
1'
1(
1)
1*
1+
1,
0-
0.
0/
0B
zC
zD
zE
0F
0G
0H
1I
1J
0K
0L
0M
0N
1O
0P
0Q
0R
1S
0T
0U
0V
0W
1X
0Y
0Z
0[
0\
1]
0^
0_
0`
0a
0b
1c
0d
0e
0f
1g
0h
0i
0j
1k
0l
0m
0n
0o
0p
0q
1r
0s
0t
1u
1v
0w
0x
0y
1z
0{
0|
0}
1~
0!!
0"!
0#!
1$!
0%!
0&!
0'!
1(!
0)!
0*!
0+!
1,!
0-!
0.!
0/!
10!
01!
02!
03!
14!
05!
06!
07!
18!
19!
1:!
1;!
1<!
0=!
0>!
0?!
1`!
0@!
0A!
0B!
0C!
0D!
0E!
0F!
0G!
0H!
0I!
0J!
0K!
0L!
0M!
0N!
0O!
0P!
0Q!
0R!
0S!
0T!
0U!
0V!
0W!
0X!
0Y!
0Z!
0[!
0\!
0]!
0^!
0_!
1>
1?
1@
0A
1:
1;
1<
0=
00
01
02
03
04
05
06
07
08
09
$end
#10000
1!
1-
1G
1A
1H
1_!
0I
1M
0u
1N
0J
#20000
0!
0-
0G
0A
0H
#30000
1!
1-
1G
1A
1H
0_!
1^!
0N
0O
1I
0M
1N
1O
1J
1P
0P
#40000
0!
0-
0G
0A
0H
#50000
1!
1-
1G
1A
1H
1_!
0I
1M
0N
0O
0J
1P
#60000
0!
0-
0G
0A
0H
#70000
1!
1-
1G
1A
1H
0_!
0^!
1]!
0P
1Q
1N
1O
1I
0M
0N
1J
1P
0Q
1R
0R
#80000
0!
0-
0G
0A
0H
#90000
1!
1-
1G
1A
1H
1_!
0I
1M
1N
0J
#100000
0!
0-
0G
0A
0H
#110000
1!
1-
1G
1A
1H
0_!
1^!
0N
0O
1I
0M
1N
1O
1J
0P
1Q
1R
1P
0Q
0R
#120000
0!
0-
0G
0A
0H
#130000
1!
1-
1G
1A
1H
1_!
0I
1M
0N
0O
0J
0P
1Q
1R
#140000
0!
0-
0G
0A
0H
#150000
1!
1-
1G
1A
1H
0_!
0^!
0]!
1\!
0R
0S
1P
0Q
1N
1O
1I
0M
0N
1J
0P
1R
1S
1T
1U
0T
0U
#160000
0!
0-
0G
0A
0H
#170000
1!
1-
1G
1A
1H
1_!
0I
1M
1N
0J
#180000
0!
0-
0G
0A
0H
#190000
1!
1-
1G
1A
1H
0_!
1^!
0N
0O
1I
0M
1N
1O
1J
1P
0P
#200000
0!
0-
0G
0A
0H
#210000
1!
1-
1G
1A
1H
1_!
0I
1M
0N
0O
0J
1P
#220000
0!
0-
0G
0A
0H
#230000
1!
1-
1G
1A
1H
0_!
0^!
1]!
0P
1Q
1N
1O
1I
0M
0N
1J
1P
0Q
0R
0S
1T
1R
1S
0T
1U
0U
#240000
0!
0-
0G
0A
0H
#250000
1!
1-
1G
1A
1H
1_!
0I
1M
1N
0J
#260000
0!
0-
0G
0A
0H
#270000
1!
1-
1G
1A
1H
0_!
1^!
0N
0O
1I
0M
1N
1O
1J
0P
1Q
0R
0S
1P
0Q
1R
1S
1T
1U
0T
0U
#280000
0!
0-
0G
0A
0H
#290000
1!
1-
1G
1A
1H
1_!
0I
1M
0N
0O
0J
0P
1Q
0R
0S
1T
1U
#300000
0!
0-
0G
0A
0H
#310000
1!
1-
1G
1A
1H
0_!
0^!
0]!
0\!
1[!
0T
1V
1R
1S
1P
0Q
1N
1O
1I
0M
1u
0N
1J
0P
0R
1T
0V
1W
0U
0W
1U
#320000
0!
0-
0G
0A
0H
#330000
1!
1-
1G
1A
1H
1_!
0I
1M
0u
1N
0J
#340000
0!
0-
0G
0A
0H
#350000
1!
1-
1G
1A
1H
0_!
1^!
0N
0O
1I
0M
1N
1O
1J
1P
0P
#360000
0!
0-
0G
0A
0H
#370000
1!
1-
1G
1A
1H
1_!
0I
1M
0N
0O
0J
1P
#380000
0!
0-
0G
0A
0H
#390000
1!
1-
1G
1A
1H
0_!
0^!
1]!
0P
1Q
1N
1O
1I
0M
0N
1J
1P
0Q
1R
0R
#400000
0!
0-
0G
0A
0H
#410000
1!
1-
1G
1A
1H
1_!
0I
1M
1N
0J
#420000
0!
0-
0G
0A
0H
#430000
1!
1-
1G
1A
1H
0_!
1^!
0N
0O
1I
0M
1N
1O
1J
0P
1Q
1R
1P
0Q
0R
#440000
0!
0-
0G
0A
0H
#450000
1!
1-
1G
1A
1H
1_!
0I
1M
0N
0O
0J
0P
1Q
1R
#460000
0!
0-
0G
0A
0H
#470000
1!
1-
1G
1A
1H
0_!
0^!
0]!
1\!
0R
0S
1P
0Q
1N
1O
1I
0M
0N
1J
0P
1R
1S
0T
1V
1W
0U
1T
0V
0W
1U
#480000
0!
0-
0G
0A
0H
#490000
1!
1-
1G
1A
1H
1_!
0I
1M
1N
0J
#500000
0!
0-
0G
0A
0H
#510000
1!
1-
1G
1A
1H
0_!
1^!
0N
0O
1I
0M
1N
1O
1J
1P
0P
#520000
0!
0-
0G
0A
0H
#530000
1!
1-
1G
1A
1H
1_!
0I
1M
0N
0O
0J
1P
#540000
0!
0-
0G
0A
0H
#550000
1!
1-
1G
1A
1H
0_!
0^!
1]!
0P
1Q
1N
1O
1I
0M
0N
1J
1P
0Q
0R
0S
0T
1V
1R
1S
1T
0V
1W
0U
0W
1U
#560000
0!
0-
0G
0A
0H
#570000
1!
1-
1G
1A
1H
1_!
0I
1M
1N
0J
#580000
0!
0-
0G
0A
0H
#590000
1!
1-
1G
1A
1H
0_!
1^!
0N
0O
1I
0M
1N
1O
1J
0P
1Q
0R
0S
1P
0Q
1R
1S
0T
1V
1W
0U
1T
0V
0W
1U
#600000
0!
0-
0G
0A
0H
#610000
1!
1-
1G
1A
1H
1_!
0I
1M
0N
0O
0J
0P
1Q
0R
0S
0T
1V
1W
0U
#620000
0!
0-
0G
0A
0H
#630000
1!
1-
1G
1A
1H
0_!
0^!
0]!
0\!
0[!
1Z!
0W
0X
1T
0V
1R
1S
1P
0Q
1N
1O
1I
0M
1u
0N
1J
0P
0R
0T
1W
1X
1U
1Y
1Z
0Y
0U
0Z
#640000
0!
0-
0G
0A
0H
#650000
1!
1-
1G
1A
1H
1_!
0I
1M
0u
1N
0J
#660000
0!
0-
0G
0A
0H
#670000
1!
1-
1G
1A
1H
0_!
1^!
0N
0O
1I
0M
1N
1O
1J
1P
0P
#680000
0!
0-
0G
0A
0H
#690000
1!
1-
1G
1A
1H
1_!
0I
1M
0N
0O
0J
1P
#700000
0!
0-
0G
0A
0H
#710000
1!
1-
1G
1A
1H
0_!
0^!
1]!
0P
1Q
1N
1O
1I
0M
0N
1J
1P
0Q
1R
0R
#720000
0!
0-
0G
0A
0H
#730000
1!
1-
1G
1A
1H
1_!
0I
1M
1N
0J
#740000
0!
0-
0G
0A
0H
#750000
1!
1-
1G
1A
1H
0_!
1^!
0N
0O
1I
0M
1N
1O
1J
0P
1Q
1R
1P
0Q
0R
#760000
0!
0-
0G
0A
0H
#770000
1!
1-
1G
1A
1H
1_!
0I
1M
0N
0O
0J
0P
1Q
1R
#780000
0!
0-
0G
0A
0H
#790000
1!
1-
1G
1A
1H
0_!
0^!
0]!
1\!
0R
0S
1P
0Q
1N
1O
1I
0M
0N
1J
0P
1R
1S
1T
1U
0T
0U
#800000
0!
0-
0G
0A
0H
#810000
1!
1-
1G
1A
1H
1_!
0I
1M
1N
0J
#820000
0!
0-
0G
0A
0H
#830000
1!
1-
1G
1A
1H
0_!
1^!
0N
0O
1I
0M
1N
1O
1J
1P
0P
#840000
0!
0-
0G
0A
0H
#850000
1!
1-
1G
1A
1H
1_!
0I
1M
0N
0O
0J
1P
#860000
0!
0-
0G
0A
0H
#870000
1!
1-
1G
1A
1H
0_!
0^!
1]!
0P
1Q
1N
1O
1I
0M
0N
1J
1P
0Q
0R
0S
1T
1R
1S
0T
1U
0U
#880000
0!
0-
0G
0A
0H
#890000
1!
1-
1G
1A
1H
1_!
0I
1M
1N
0J
#900000
0!
0-
0G
0A
0H
#910000
1!
1-
1G
1A
1H
0_!
1^!
0N
0O
1I
0M
1N
1O
1J
0P
1Q
0R
0S
1P
0Q
1R
1S
1T
1U
0T
0U
#920000
0!
0-
0G
0A
0H
#930000
1!
1-
1G
1A
1H
1_!
0I
1M
0N
0O
0J
0P
1Q
0R
0S
1T
1U
#940000
0!
0-
0G
0A
0H
#950000
1!
1-
1G
1A
1H
0_!
0^!
0]!
0\!
1[!
0T
1V
1R
1S
1P
0Q
1N
1O
1I
0M
1u
0N
1J
0P
0R
1T
0V
0W
0X
0U
1Y
1W
1X
1U
0Y
1Z
0Z
#960000
0!
0-
0G
0A
0H
#970000
1!
1-
1G
1A
1H
1_!
0I
1M
0u
1N
0J
#980000
0!
0-
0G
0A
0H
#990000
1!
1-
1G
1A
1H
0_!
1^!
0N
0O
1I
0M
1N
1O
1J
1P
0P
